Error near line 3, token 6 (</para>): Tag mismatch; malformed document?
  open tag: <literal>
  close tag: </para>
  enclosing tags:
  1: <para>
Error at EOF: Unclosed tags; malformed document?
  unclosed tags:
  1: <para>
Error at EOF: Unprocessed child elements; malformed document?
Cannot continue processing document.
